Collaborative Data Science Project
…
RESULTS: The lack of overlap between covex hulls indicate that each reef habitat has distinct benthic communities. The lagoon has greater abundance of macroalgae, while the backreef has higher coral abundance.

Now, we are interested in understanding what are the potential factors driving coral abundance? For that we will perform a Bayesian Generalized Linear Model using the package brms.

First we need to extract the macroalgae and the coral abundance data in a tidy way

func.group.cover

# A tibble: 162 × 5
# Groups:   Site, Transect [18]
   Site             Transect func_group    transect_cover Habitat 
   <chr>            <chr>    <chr>                  <dbl> <chr>   
 1 BZE_CBC_BACKREEF T1       CCA                    0.12  Backreef
 2 BZE_CBC_BACKREEF T1       Coral                  0.144 Backreef
 3 BZE_CBC_BACKREEF T1       Cyanobacteria          0.012 Backreef
 4 BZE_CBC_BACKREEF T1       EAM                    0.476 Backreef
 5 BZE_CBC_BACKREEF T1       Gorgonian              0.1   Backreef
 6 BZE_CBC_BACKREEF T1       Macroalgae             0.036 Backreef
 7 BZE_CBC_BACKREEF T1       Other                  0.084 Backreef
 8 BZE_CBC_BACKREEF T1       Seagrass               0     Backreef
 9 BZE_CBC_BACKREEF T1       Sponge                 0.028 Backreef
10 BZE_CBC_BACKREEF T2       CCA                    0.096 Backreef
# ℹ 152 more rows
…
